…
Count number of regions in Levey that overlap:

levey %>% slice(unique(cojo_levey_overlaps@to)) %>% count()

## # A tibble: 1 × 1
##       n
##   <int>
## 1   191

cojo_known <- cojo %>% slice(unique(cojo_levey_overlaps@from))

catalog_known <- rp_gwas_catalog_entries %>% filter(SNP %in% cojo_known$SNP) %>% count(phenotype) %>% arrange(desc(n))
catalog_known

## # A tibble: 166 × 2
##    phenotype                   n
##    <chr>                   <int>
##  1 Serum_metabolit...        186
##  2 Schizophrenia              45
##  3 Intelligence_(MTAG)        42
##  4 Trans_fatty_acid_levels    29
##  5 Waist_circumfer...         29
##  6 Depression_(broad)         28
##  7 Glycerophosphol...         27
##  8 Neuroticism                26
##  9 Autism_spectrum...         24
## 10 Depression                 22
## # … with 156 more rows

Newly discovered regions

cojo_new <- cojo %>% slice(unique(-cojo_levey_overlaps@from)) %>% arrange(P)
cojo_new %>%
select(region, snp_idx, CHR, SNP, BP, P, pJ) %>%
group_by(region)

## # A tibble: 360 × 7
## # Groups:   region [342]
##    region snp_idx   CHR SNP               BP        P       pJ
##     <dbl>   <dbl> <dbl> <chr>          <dbl>    <dbl>    <dbl>
##  1    174       1     5 rs1993739  153215007 5.71e-20 5.72e-20
##  2    487       1    20 rs17805843  51205902 9.34e-20 9.36e-20
##  3     49       2     2 rs359247    60477052 2.67e-18 6.60e-17
##  4    166       1     5 rs6863440  120084621 3.25e-18 3.26e-18
##  5    211       1     7 rs10499337   3521803 1.19e-17 1.48e-16
##  6    362       1    12 rs2363585   60791165 1.69e-16 1.69e-16
##  7    310       1    10 rs12778915  77617557 2.35e-16 2.35e-16
##  8    374       1    12 rs7962128  121907336 3.68e-16 3.68e-16
##  9     76       1     2 rs13418032 198413692 9.89e-16 9.90e-16
## 10     81       1     2 rs72931605 212693775 1.29e-15 1.21e- 9
## # … with 350 more rows

rp_gwas_catalog_entries %>% filter(SNP %in% cojo_new$SNP) %>% count(phenotype) %>% arrange(desc(n)) %>% filter(!phenotype %in% catalog_known$phenotype)

## # A tibble: 61 × 2
##    phenotype                    n
##    <chr>                    <int>
##  1 Body_mass_index...           9
##  2 Morning_vs._eve...           5
##  3 Obesity                      5
##  4 Hip_circumference            4
##  5 Diastolic_blood_pressure     3
##  6 Monocyte_count               3
##  7 Pulse_pressure               3
##  8 Ulcerative_colitis           3
##  9 Waist_circumference          3
## 10 Adiponectin_levels           2
## # … with 51 more rows

rp_genes_dist %>% filter(SNP %in% cojo_new$SNP) %>% group_by(SNP) %>% filter(dist2index == min(dist2index)) %>% ungroup() %>% select(gene) %>% distinct()

## # A tibble: 374 × 1
##    gene    
##    <chr>   
##  1 NISCH   
##  2 STAB1   
##  3 NT5DC2  
##  4 SMIM4   
##  5 PBRM1   
##  6 NTRK3   
##  7 GTF2IRD1
##  8 NXPH1   
##  9 MAGI2   
## 10 ETV6    
## # … with 364 more rows
…
Comparison between pre-COJO and post-COJO

Find regions overlapping between clumped and COJO results

cojo_clumped_overlaps <- findOverlaps(cojo_gr, rp_gr)

List COJO results where the selected SNP is not in the clumped results

cojo_newly_selected <- 
cojo %>% slice(unique(cojo_clumped_overlaps@from)) %>%
filter(!SNP %in% rp$SNP) %>%
select(region, snp_idx, CHR, SNP, P, pJ) 
cojo_newly_selected

## # A tibble: 58 × 6
##    region snp_idx   CHR SNP                P       pJ
##     <dbl>   <dbl> <dbl> <chr>          <dbl>    <dbl>
##  1      1       1     1 rs301806    1.87e-16 1.87e-16
##  2     10       1     1 rs437021    5.70e-11 5.71e-11
##  3     13       1     1 rs3101341   5.22e-27 2.29e-11
##  4     13       2     1 rs2797104   5.84e-32 4.16e-10
##  5     47       1     2 rs858938    3.87e- 8 2.65e-10
##  6     48       2     2 rs56873970  2.76e- 3 1.82e- 8
##  7     49       1     2 rs7576017   1.18e-13 2.96e-12
##  8     50       1     2 rs149044563 7.75e-13 7.76e-13
##  9     53       1     2 rs73949838  5.43e- 9 5.43e- 9
## 10     55       1     2 rs3860446   1.10e-10 3.29e-11
## # … with 48 more rows
…
List clumped SNPs in retained regions that were not selected by COJO

rp %>% slice(unique(cojo_clumped_overlaps@to)) %>%
filter(!SNP %in% cojo$SNP)

## # A tibble: 246 × 23
##    SNP        CHR      BP        P    OR     SE A1A2  FRQ_A_524857 FRQ_U_3059006
##    <chr>    <dbl>   <dbl>    <dbl> <dbl>  <dbl> <chr>        <dbl>         <dbl>
##  1 rs301817     1  8.50e6 3.23e-17 1.02  0.0028 C/A         0.419         0.426 
##  2 rs75986…     1  5.28e7 1.99e- 8 0.967 0.0061 A/G         0.044         0.0458
##  3 rs446952     1  6.17e7 1.78e-11 1.02  0.0027 T/C         0.465         0.458 
##  4 rs25689…     1  7.28e7 1.58e-32 0.963 0.0031 A/G         0.176         0.172 
##  5 rs12127…     1  7.27e7 4.91e-23 1.04  0.0038 T/G         0.119         0.119 
##  6 rs12748…     1  7.30e7 1.47e-14 1.02  0.003  A/T         0.279         0.277 
##  7 rs75805…     1  7.39e7 6.32e-13 0.950 0.0071 T/C         0.0301        0.0304
##  8 rs61771…     1  7.33e7 3.66e-12 0.977 0.0034 A/G         0.156         0.158 
##  9 rs12128…     1  7.31e7 4.20e-12 0.977 0.0034 G/A         0.163         0.164 
## 10 rs10736…     1  7.40e7 1.18e-11 1.03  0.0036 C/T         0.12          0.118 
## # … with 236 more rows, and 14 more variables: INFO <dbl>,
## #   (Nca,Nco,Neff)Dir <chr>, ngt <dbl>, LD-friends(0.1).p0.001 <chr>,
## #   range.left <dbl>, range.right <dbl>, span(kb) <dbl>,
## #   LD-friends(0.6).p0.001 <chr>, range.left.6 <dbl>, range.right.6 <dbl>,
## #   span.6(kb) <dbl>, gwas_catalog_span.6 <chr>,
## #   genes.6.50kb(dist2index) <chr>, N.genes.6.50kb <chr>

Line up non-selected SNPs with selected SNPs in the region

bind_cols(
select(slice(cojo, cojo_clumped_overlaps@from), region, snp_idx, SNP.cojo=SNP, BP.cojo=BP, P.cojo=P, PJ.cojo=pJ),
select(slice(rp, cojo_clumped_overlaps@to), SNP.rp=SNP, BP.rp=BP, P.rp=P)
) %>%
filter(!SNP.rp %in% cojo$SNP)

## # A tibble: 400 × 9
##    region snp_idx SNP.cojo   BP.cojo   P.cojo  PJ.cojo SNP.rp     BP.rp     P.rp
##     <dbl>   <dbl> <chr>        <dbl>    <dbl>    <dbl> <chr>      <dbl>    <dbl>
##  1      1       1 rs301806   8482078 1.87e-16 1.87e-16 rs301817  8.50e6 3.23e-17
##  2      9       1 rs7413471 52339759 2.96e-15 2.96e-15 rs75986…  5.28e7 1.99e- 8
##  3     10       1 rs437021  61738270 5.70e-11 5.71e-11 rs446952  6.17e7 1.78e-11
##  4     13       1 rs3101341 72747844 5.22e-27 2.29e-11 rs25689…  7.28e7 1.58e-32
##  5     13       1 rs3101341 72747844 5.22e-27 2.29e-11 rs12127…  7.27e7 4.91e-23
##  6     13       1 rs3101341 72747844 5.22e-27 2.29e-11 rs12748…  7.30e7 1.47e-14
##  7     13       1 rs3101341 72747844 5.22e-27 2.29e-11 rs75805…  7.39e7 6.32e-13
##  8     13       1 rs3101341 72747844 5.22e-27 2.29e-11 rs61771…  7.33e7 3.66e-12
##  9     13       1 rs3101341 72747844 5.22e-27 2.29e-11 rs12128…  7.31e7 4.20e-12
## 10     13       1 rs3101341 72747844 5.22e-27 2.29e-11 rs10736…  7.40e7 1.18e-11
## # … with 390 more rows
