…
    ## # A tibble: 1 × 1
    ##       n
    ##   <int>
    ## 1   191

``` r
cojo_known <- cojo %>% slice(unique(cojo_levey_overlaps@from))

catalog_known <- rp_gwas_catalog_entries %>% filter(SNP %in% cojo_known$SNP) %>% count(phenotype) %>% arrange(desc(n))
catalog_known
```

    ## # A tibble: 166 × 2
    ##    phenotype                   n
    ##    <chr>                   <int>
    ##  1 Serum_metabolit...        186
    ##  2 Schizophrenia              45
    ##  3 Intelligence_(MTAG)        42
    ##  4 Trans_fatty_acid_levels    29
    ##  5 Waist_circumfer...         29
    ##  6 Depression_(broad)         28
    ##  7 Glycerophosphol...         27
    ##  8 Neuroticism                26
    ##  9 Autism_spectrum...         24
    ## 10 Depression                 22
    ## # … with 156 more rows

Newly discovered regions

``` r
cojo_new <- cojo %>% slice(unique(-cojo_levey_overlaps@from)) %>% arrange(P)
cojo_new %>%
select(region, snp_idx, CHR, SNP, BP, P, pJ) %>%
group_by(region)
```

    ## # A tibble: 360 × 7
    ## # Groups:   region [342]
    ##    region snp_idx   CHR SNP               BP        P       pJ
    ##     <dbl>   <dbl> <dbl> <chr>          <dbl>    <dbl>    <dbl>
    ##  1    174       1     5 rs1993739  153215007 5.71e-20 5.72e-20
    ##  2    487       1    20 rs17805843  51205902 9.34e-20 9.36e-20
    ##  3     49       2     2 rs359247    60477052 2.67e-18 6.60e-17
    ##  4    166       1     5 rs6863440  120084621 3.25e-18 3.26e-18
    ##  5    211       1     7 rs10499337   3521803 1.19e-17 1.48e-16
    ##  6    362       1    12 rs2363585   60791165 1.69e-16 1.69e-16
    ##  7    310       1    10 rs12778915  77617557 2.35e-16 2.35e-16
    ##  8    374       1    12 rs7962128  121907336 3.68e-16 3.68e-16
    ##  9     76       1     2 rs13418032 198413692 9.89e-16 9.90e-16
    ## 10     81       1     2 rs72931605 212693775 1.29e-15 1.21e- 9
    ## # … with 350 more rows

``` r
rp_gwas_catalog_entries %>% filter(SNP %in% cojo_new$SNP) %>% count(phenotype) %>% arrange(desc(n)) %>% filter(!phenotype %in% catalog_known$phenotype)
```

    ## # A tibble: 61 × 2
    ##    phenotype                    n
    ##    <chr>                    <int>
    ##  1 Body_mass_index...           9
    ##  2 Morning_vs._eve...           5
    ##  3 Obesity                      5
    ##  4 Hip_circumference            4
    ##  5 Diastolic_blood_pressure     3
    ##  6 Monocyte_count               3
    ##  7 Pulse_pressure               3
    ##  8 Ulcerative_colitis           3
    ##  9 Waist_circumference          3
    ## 10 Adiponectin_levels           2
    ## # … with 51 more rows

``` r
rp_genes_dist %>% filter(SNP %in% cojo_new$SNP) %>% group_by(SNP) %>% filter(dist2index == min(dist2index)) %>% ungroup() %>% select(gene) %>% distinct()
```

    ## # A tibble: 374 × 1
    ##    gene    
    ##    <chr>   
    ##  1 NISCH   
    ##  2 STAB1   
    ##  3 NT5DC2  
    ##  4 SMIM4   
    ##  5 PBRM1   
    ##  6 NTRK3   
    ##  7 GTF2IRD1
    ##  8 NXPH1   
    ##  9 MAGI2   
    ## 10 ETV6    
    ## # … with 364 more rows
…
