…
Non-UKB/overlapping phenotypes sorted by magnitude of genetic
correlation

``` r
ldsc_rg_full_howard_fdr %>%
    filter(!str_detect(id, 'ukb'), p_full <= 0.05, q_full <= 0.05, abs(gcov_int_full) <= 0.05) %>%
    arrange(desc(abs(rg_full))) %>%
    select(trait, rg_full, id, p=p_full, q=q_full) %>%
    print(n=40)
```

    ## # A tibble: 177 × 5
    ##    trait                                  rg_full id                 p         q
    ##    <chr>                                    <dbl> <chr>          <dbl>     <dbl>
    ##  1 Neuroticism                              0.702 ebi-a-GCS… 2.02e-162 5.44e-162
    ##  2 Neuroticism                              0.671 ebi-a-GCS… 8.31e-164 2.28e-163
    ##  3 Neuroticism                              0.658 ieu-a-1007 3.36e-194 1.20e-193
    ##  4 Wellbeing                               -0.631 ieu-b-4852 1.27e- 26 7.04e- 27
    ##  5 Feeling tense                            0.585 ebi-a-GCS… 8.55e-219 3.80e-218
    ##  6 Irritable mood                           0.496 ebi-a-GCS… 6.67e-143 1.50e-142
    ##  7 Feeling worry                            0.447 ebi-a-GCS… 1.96e-144 4.48e-144
    ##  8 Feeling nervous                          0.403 ebi-a-GCS… 2.25e- 85 3.02e- 85
    ##  9 bipolar disorder                         0.402 ieu-b-41   1.10e- 77 1.37e- 77
    ## 10 Trauma exposure in major depressive d…   0.400 ebi-a-GCS… 3.16e- 24 1.66e- 24
    ## 11 Ever smoked                              0.390 ieu-b-4858 1.16e- 50 1.07e- 50
    ## 12 schizophrenia                            0.374 ieu-b-42   1.57e- 97 2.36e- 97
    ## 13 Schizophrenia                            0.365 ieu-a-22   7.32e- 98 1.13e- 97
    ## 14 Bipolar disorder                         0.356 ieu-a-801  3.96e- 24 2.08e- 24
    ## 15 Worry too long after an embarrassing …   0.343 ebi-a-GCS… 3.17e- 63 3.39e- 63
    ## 16 smoking initiation                       0.341 ieu-b-4877 9.66e- 92 1.39e- 91
    ## 17 Age Of Smoking Initiation               -0.307 ieu-b-24   6.73e- 41 5.12e- 41
    ## 18 Cigarettes per Day                       0.303 ieu-b-25   1.83e- 23 9.46e- 24
    ## 19 Cigarettes smoked per day                0.303 ieu-b-142  1.83e- 23 9.44e- 24
    ## 20 Parental longevity (father's age at d…  -0.285 ebi-a-GCS… 2.42e- 21 1.17e- 21
    ## 21 Coronary artery disease                  0.278 ebi-a-GCS… 6.98e- 40 5.20e- 40
    ## 22 Strenuous sports or other exercises     -0.274 ebi-a-GCS… 3.79e- 40 2.84e- 40
    ## 23 Coronary artery disease                  0.246 ebi-a-GCS… 2.58e- 45 2.13e- 45
    ## 24 Type 2 diabetes                          0.215 ebi-a-GCS… 1.38e- 24 7.40e- 25
    ## 25 Anorexia Nervosa                         0.213 ieu-a-1186 3.03e-  7 9.13e-  8
    ## 26 C-reactive protein                       0.211 ieu-b-4764 1   e-  4 2.49e-  5
    ## 27 Knee osteoarthritis                      0.206 ebi-a-GCS… 1.61e- 20 7.67e- 21
    ## 28 Parental longevity (combined parental…   0.205 ebi-a-GCS… 4.52e- 14 1.82e- 14
    ## 29 25 hydroxyvitamin D level               -0.204 ieu-b-4808 1.40e- 22 7.04e- 23
    ## 30 College completion                      -0.200 ieu-a-836  2.09e- 13 8.23e- 14
    ## 31 Allergic disease (asthma, hay fever o…   0.197 ebi-a-GCS… 6.03e- 19 2.77e- 19
    ## 32 Years of schooling                      -0.196 ieu-a-755  4.43e- 13 1.72e- 13
    ## 33 Years of schooling                      -0.184 ieu-a-1010 8.99e- 18 3.96e- 18
    ## 34 25 hydroxyvitamin D level               -0.181 ieu-b-4812 2.91e- 19 1.34e- 19
    ## 35 Waist-to-hip ratio                       0.181 ieu-a-77   5.11e- 10 1.74e- 10
    ## 36 Waist-to-hip ratio                       0.181 ieu-a-76   2.29e- 10 7.94e- 11
    ## 37 Years of schooling                      -0.179 ieu-a-1001 1.08e- 22 5.45e- 23
    ## 38 Transferrin                              0.176 ieu-a-1052 1.77e-  2 3.63e-  3
    ## 39 Years of schooling                      -0.173 ieu-b-4836 3.10e- 10 1.07e- 10
    ## 40 Accelerometer-based physical activity…  -0.172 ebi-a-GCS… 5.61e- 13 2.16e- 13
    ## # … with 137 more rows
