PGC MDD3 sumstats QC checks for meta-analysis
…
Show the largest and smallest intercepts. Exclude Wray2018 sumstats that are also in the mix. Calculate distance from 0 in standard deviation units to get an idea of the magnitude of departure from expectation relative to the other intercepts.

meta_qc_ldsc_pairs_mdd3 %>%
select(cohort1, subcohort1, cohort2, subcohort2, gcov_int) %>%
mutate(SDs=abs(gcov_int)/sd(gcov_int, na.rm=T)) %>%
arrange(desc(gcov_int))

## # A tibble: 435 x 6
##    cohort1 subcohort1            cohort2 subcohort2            gcov_int    SDs
##    <chr>   <chr>                 <chr>   <chr>                    <dbl>  <dbl>
##  1 MDD29   0120a_rmUKBB          MDD49   29w2_20w3_1504          0.704  19.1  
##  2 HUNT    gp_all_20190625       HUNT    hospital_all_20190625   0.0811  2.20 
##  3 23andMe v7_2_202012           iPSYCH  2012_HRC                0.0219  0.595
##  4 MoBa    harvest12             MoBa    rotterdam1              0.0213  0.579
##  5 MDD49   29w2_20w3_1504        tkda1   run1                    0.0212  0.576
##  6 HUNT    hospital_all_20190625 iPSYCH  2015i_HRC               0.0205  0.557
##  7 HUNT    hospital_all_20190625 iPSYCH  2012_HRC                0.0165  0.449
##  8 MDD29   0120a_rmUKBB          tkda1   run1                    0.0163  0.443
##  9 HUNT    hospital_all_20190625 MoBa    harvest12               0.0148  0.402
## 10 AGDS    202012                iPSYCH  2012_HRC                0.0147  0.400
## # ... with 425 more rows

meta_qc_ldsc_pairs_mdd3 %>%
select(cohort1, subcohort1, cohort2, subcohort2, gcov_int) %>%
mutate(SDs=abs(gcov_int)/sd(gcov_int, na.rm=T)) %>%
arrange(gcov_int)

## # A tibble: 435 x 6
##    cohort1 subcohort1          cohort2 subcohort2          gcov_int   SDs
##    <chr>   <chr>               <chr>   <chr>                  <dbl> <dbl>
##  1 GERA    0915a_mds5          MoBa    harvest12            -0.0172 0.468
##  2 23andMe v7_2_202012         BASIC   202011               -0.0123 0.334
##  3 23andMe v7_2_202012         Airwave 0820                 -0.012  0.326
##  4 SHARE   godartsshare_842021 iPSYCH  2012_HRC             -0.0116 0.315
##  5 EXCEED  202010              MoBa    harvest12            -0.0109 0.296
##  6 GERA    0915a_mds5          iPSYCH  2012_HRC             -0.0109 0.296
##  7 MoBa    harvest12           SHARE   godartsshare_842021  -0.0106 0.288
##  8 23andMe v7_2_202012         ALSPAC  12082019             -0.0103 0.280
##  9 EXCEED  202010              GenScot 1215a                -0.0103 0.280
## 10 DBDS    FINAL202103         MoBa    rotterdam1           -0.0102 0.277
## # ... with 425 more rows
…
## Step 1... determine cutoff point
## Step 2... estimate parameters of null distribution and eta0
## Step 3... compute p-values and estimate empirical PDF/CDF
## Step 4... compute q-values and local fdr

Sort (largest-to-smallest) by sample overlap

meta_qc_ldsc_pairs_mdd3_ns %>%
arrange(desc(Ns)) %>%
select(-chisq, -qval, -Ns_pct)

## # A tibble: 380 x 9
##    cohort1 subcohort1 cohort2 subcohort2 cohortN1 cohortN2     Ns  Ns_l95 Ns_u95
##    <chr>   <chr>      <chr>   <chr>         <dbl>    <dbl>  <dbl>   <dbl>  <dbl>
##  1 MDD29   0120a_rmU~ MDD49   29w2_20w3~    42126    76180 39881. 39126.  40636.
##  2 23andMe v7_2_2020~ iPSYCH  2012_HRC    1886830    41864  6155.  1032.  11278.
##  3 23andMe v7_2_2020~ ESTBB   EstBB       1886830   126774  5478. -1903.  12859.
##  4 23andMe v7_2_2020~ UKBB    MD_glm_20~  1886830   361130  4788. -7994.  17569.
##  5 23andMe v7_2_2020~ MVP     ICDdep_Al~  1886830   250215  4191. -6717.  15100.
##  6 23andMe v7_2_2020~ GERA    0915a_mds5  1886830    45469  2519. -1901.   6939.
##  7 MDD49   29w2_20w3~ UKBB    MD_glm_20~    76180   361130  2189.    43.8  4335.
##  8 23andMe v7_2_2020~ BioVU   Cov_SAIGE~  1886830    32480  2178. -1266.   5623.
##  9 HUNT    gp_all_20~ HUNT    hospital_~    32539    21654  2153.  1887.   2418.
## 10 ESTBB   EstBB      UKBB    MD_glm_20~   126774   361130  1990.   103.   3877.
## # ... with 370 more rows

Sort (largest-to-smallest) by percentage of overlap to combined sample size

meta_qc_ldsc_pairs_mdd3_ns %>%
arrange(desc(Ns_pct)) %>%
select(-cohortN1, -cohortN2, -chisq, -qval)

## # A tibble: 380 x 8
##    cohort1 subcohort1       cohort2 subcohort2           Ns Ns_l95 Ns_u95 Ns_pct
##    <chr>   <chr>            <chr>   <chr>             <dbl>  <dbl>  <dbl>  <dbl>
##  1 MDD29   0120a_rmUKBB     MDD49   29w2_20w3_1504   3.99e4 3.91e4 40636. 33.7  
##  2 HUNT    gp_all_20190625  HUNT    hospital_all_20~ 2.15e3 1.89e3  2418.  3.97 
##  3 MoBa    harvest12        MoBa    rotterdam1       2.15e2 1.02e2   328.  1.06 
##  4 HUNT    hospital_all_20~ iPSYCH  2015i_HRC        4.81e2 2.19e2   743.  1.02 
##  5 HUNT    hospital_all_20~ iPSYCH  2012_HRC         4.97e2 1.49e2   845.  0.782
##  6 AGDS    202012           iPSYCH  2012_HRC         4.74e2 5.05e1   897.  0.711
##  7 HUNT    hospital_all_20~ MoBa    harvest12        2.26e2 3.15e1   421.  0.698
##  8 HUNT    gp_all_20190625  MoBa    harvest12        2.66e2 3.84e1   494.  0.614
##  9 PREFECT run1             STAGE   MDDdx_saige      8.92e1 9.98e0   168.  0.609
## 10 STAGE   MDDdx_saige      lgic2   202011           9.24e1 1.62e1   168.  0.608
## # ... with 370 more rows

Sort by \(\chi^2\) (Wald) test statistics

meta_qc_ldsc_pairs_mdd3_ns %>%
arrange(desc(chisq)) %>%
select(-cohortN1, -cohortN2)

## # A tibble: 380 x 10
##    cohort1 subcohort1  cohort2 subcohort2   chisq     qval     Ns  Ns_l95 Ns_u95
##    <chr>   <chr>       <chr>   <chr>        <dbl>    <dbl>  <dbl>   <dbl>  <dbl>
##  1 MDD29   0120a_rmUK~ MDD49   29w2_20w3_~ 1.07e4 0        39881. 39126.  40636.
##  2 HUNT    gp_all_201~ HUNT    hospital_a~ 2.53e2 1.01e-54  2153.  1887.   2418.
##  3 MoBa    harvest12   MoBa    rotterdam1  1.40e1 1.65e- 2   215.   102.    328.
##  4 MDD49   29w2_20w3_~ tkda1   run1        1.34e1 1.93e- 2   228.   106.    350.
##  5 HUNT    hospital_a~ iPSYCH  2015i_HRC   1.29e1 2.13e- 2   481.   219.    743.
##  6 MDD29   0120a_rmUK~ tkda1   run1        9.11e0 1.22e- 1   130.    45.7   215.
##  7 GERA    0915a_mds5  UKBB    MD_glm_202~ 8.07e0 1.75e- 1  1820.   564.   3075.
##  8 GenScot 1215a       PBK     2020        8.03e0 1.77e- 1   172.    52.9   291.
##  9 HUNT    hospital_a~ iPSYCH  2012_HRC    7.82e0 1.89e- 1   497.   149.    845.
## 10 GERA    0915a_mds5  MoBa    harvest12   7.45e0 2.09e- 1  -381.  -655.   -108.
## # ... with 370 more rows, and 1 more variable: Ns_pct <dbl>
…
