…
Pairwise intercepts

Show the largest and smallest intercepts. Exclude Wray2018 sumstats that
are also in the mix. Calculate distance from 0 in standard deviation
units to get an idea of the magnitude of departure from expectation
relative to the other intercepts.

``` r
meta_qc_ldsc_pairs_mdd3 %>%
select(cohort1, subcohort1, cohort2, subcohort2, gcov_int) %>%
mutate(SDs=abs(gcov_int)/sd(gcov_int, na.rm=T)) %>%
arrange(desc(gcov_int))
```

    ## # A tibble: 378 x 6
    ##    cohort1 subcohort1                 cohort2 subcohort2          gcov_int   SDs
    ##    <chr>   <chr>                      <chr>   <chr>                  <dbl> <dbl>
    ##  1 23andMe v7_2_202012                iPSYCH  2012_HRC              0.0219  3.46
    ##  2 MoBa    harvest12                  MoBa    rotterdam1            0.0213  3.36
    ##  3 MDD49   29w2_20w3_X28w2_19w3       tkda1   run1                  0.0212  3.34
    ##  4 HUNT    gp_hospital_metacarpa_201~ MoBa    harvest12             0.0203  3.20
    ##  5 HUNT    gp_hospital_metacarpa_201~ MVP     rel4icdDEP_Geno_20~   0.017   2.68
    ##  6 HUNT    gp_hospital_metacarpa_201~ iPSYCH  2015i_HRC             0.0165  2.60
    ##  7 UKBB    MD_glm_202107              deCODE  DEPALL_FINAL_WHEAD    0.0158  2.49
    ##  8 MDD49   29w2_20w3_X28w2_19w3       UKBB    MD_glm_202107         0.015   2.37
    ##  9 AGDS    202012                     iPSYCH  2012_HRC              0.0147  2.32
    ## 10 HUNT    gp_hospital_metacarpa_201~ iPSYCH  2012_HRC              0.0146  2.30
    ## # ... with 368 more rows

``` r
meta_qc_ldsc_pairs_mdd3 %>%
select(cohort1, subcohort1, cohort2, subcohort2, gcov_int) %>%
mutate(SDs=abs(gcov_int)/sd(gcov_int, na.rm=T)) %>%
arrange(gcov_int)
```

    ## # A tibble: 378 x 6
    ##    cohort1 subcohort1          cohort2 subcohort2          gcov_int   SDs
    ##    <chr>   <chr>               <chr>   <chr>                  <dbl> <dbl>
    ##  1 GERA    0915a_mds5          MoBa    harvest12            -0.0172  2.71
    ##  2 23andMe v7_2_202012         BASIC   202011               -0.0123  1.94
    ##  3 23andMe v7_2_202012         Airwave 0820                 -0.0121  1.91
    ##  4 SHARE   godartsshare_842021 iPSYCH  2012_HRC             -0.0116  1.83
    ##  5 EXCEED  202010              MoBa    harvest12            -0.0109  1.72
    ##  6 GERA    0915a_mds5          iPSYCH  2012_HRC             -0.0109  1.72
    ##  7 MoBa    harvest12           SHARE   godartsshare_842021  -0.0106  1.67
    ##  8 DBDS    FINAL202103         MoBa    rotterdam1           -0.0101  1.59
    ##  9 STAGE   MDDdx_saige         tkda1   run1                 -0.0089  1.40
    ## 10 GERA    0915a_mds5          PREFECT run1                 -0.0087  1.37
    ## # ... with 368 more rows
…
    ## Step 1... determine cutoff point
    ## Step 2... estimate parameters of null distribution and eta0
    ## Step 3... compute p-values and estimate empirical PDF/CDF
    ## Step 4... compute q-values and local fdr

Sort (largest-to-smallest) by sample overlap

``` r
meta_qc_ldsc_pairs_mdd3_ns %>%
arrange(desc(Ns)) %>%
select(-chisq, -qval, -Ns_pct)
```

    ## # A tibble: 328 x 9
    ##    cohort1 subcohort1  cohort2 subcohort2 cohortN1 cohortN2    Ns  Ns_l95 Ns_u95
    ##    <chr>   <chr>       <chr>   <chr>         <dbl>    <dbl> <dbl>   <dbl>  <dbl>
    ##  1 23andMe v7_2_202012 UKBB    MD_glm_20~  1886830   361130 7512.  -5593. 20617.
    ##  2 23andMe v7_2_202012 MVP     rel4icdDE~  1886830   378614 6170. -12052. 24392.
    ##  3 23andMe v7_2_202012 iPSYCH  2012_HRC    1886830    41864 6155.   1032. 11278.
    ##  4 23andMe v7_2_202012 ESTBB   EstBB       1886830   126774 5429.  -1856. 12714.
    ##  5 23andMe v7_2_202012 BioVU   NoCov_SAI~  1886830    32480 2624.   -869.  6118.
    ##  6 ESTBB   EstBB       UKBB    MD_glm_20~   126774   361130 2568.    597.  4539.
    ##  7 23andMe v7_2_202012 GERA    0915a_mds5  1886830    45469 2548.  -1872.  6969.
    ##  8 MDD49   29w2_20w3_~ UKBB    MD_glm_20~    76180   361130 2488.    342.  4634.
    ##  9 HUNT    gp_hospita~ MVP     rel4icdDE~    54193   378614 2435.    442.  4428.
    ## 10 UKBB    MD_glm_202~ deCODE  DEPALL_FI~   361130    48000 2080.    738.  3422.
    ## # ... with 318 more rows

Sort (largest-to-smallest) by percentage of overlap to combined sample
size

``` r
meta_qc_ldsc_pairs_mdd3_ns %>%
arrange(desc(Ns_pct)) %>%
select(-cohortN1, -cohortN2, -chisq, -qval)
```

    ## # A tibble: 328 x 8
    ##    cohort1 subcohort1          cohort2 subcohort2        Ns Ns_l95 Ns_u95 Ns_pct
    ##    <chr>   <chr>               <chr>   <chr>          <dbl>  <dbl>  <dbl>  <dbl>
    ##  1 MoBa    harvest12           MoBa    rotterdam1     215.  102.     328.  1.06 
    ##  2 HUNT    gp_hospital_metaca~ iPSYCH  2015i_HRC      613.  220.    1006.  0.769
    ##  3 HUNT    gp_hospital_metaca~ MoBa    harvest12      491.  183.     800.  0.756
    ##  4 HUNT    gp_hospital_metaca~ iPSYCH  2012_HRC       695.   88.6   1302.  0.724
    ##  5 AGDS    202012              iPSYCH  2012_HRC       474.   56.9    891.  0.711
    ##  6 GenScot SCID_0721a          PBK     2020           173.   55.3    291.  0.611
    ##  7 STAGE   MDDdx_saige         lgic2   202011          92.4  16.2    168.  0.608
    ##  8 PREFECT run1                STAGE   MDDdx_saige     88.5   9.29   168.  0.605
    ##  9 iPSYCH  2012_HRC            iPSYCH  2015i_HRC      405.    1.70   808.  0.601
    ## 10 GERA    0915a_mds5          MDD49   29w2_20w3_X28~ 712.   54.6   1370.  0.585
    ## # ... with 318 more rows

Sort by *χ*<sup>2</sup> (Wald) test statistics

``` r
meta_qc_ldsc_pairs_mdd3_ns %>%
arrange(desc(chisq)) %>%
select(-cohortN1, -cohortN2)
```

    ## # A tibble: 328 x 10
    ##    cohort1 subcohort1 cohort2 subcohort2 chisq   qval    Ns Ns_l95 Ns_u95 Ns_pct
    ##    <chr>   <chr>      <chr>   <chr>      <dbl>  <dbl> <dbl>  <dbl>  <dbl>  <dbl>
    ##  1 MoBa    harvest12  MoBa    rotterdam1 14.0  0.0400  215.  102.    328.  1.06 
    ##  2 MDD49   29w2_20w3~ tkda1   run1       13.4  0.0400  228.  106.    350.  0.293
    ##  3 HUNT    gp_hospit~ MoBa    harvest12   9.75 0.134   491.  183.    800.  0.756
    ##  4 HUNT    gp_hospit~ iPSYCH  2015i_HRC   9.34 0.145   613.  220.   1006.  0.769
    ##  5 UKBB    MD_glm_20~ deCODE  DEPALL_FI~  9.23 0.148  2080.  738.   3422.  0.508
    ##  6 GenScot SCID_0721a PBK     2020        8.29 0.199   173.   55.3   291.  0.611
    ##  7 GenScot SCID_0721a iPSYCH  2012_HRC    7.46 0.246   237.   66.9   407.  0.489
    ##  8 GERA    0915a_mds5 MoBa    harvest12   7.45 0.246  -381. -655.   -108. -0.678
    ##  9 ESTBB   EstBB      UKBB    MD_glm_20~  6.52 0.328  2568.  597.   4539.  0.526
    ## 10 GERA    0915a_mds5 UKBB    MD_glm_20~  6.39 0.339  1717.  386.   3048.  0.422
    ## # ... with 318 more rows
…
